ISL Ch8 Tree-Based Methods
…
Exercise 8 pg.332

3.Compare the Gini index, classification error, and entropy as a function of \(\hat p_{m1}\)

df <- tibble(
  p1 = seq(0, 1, 0.01),
  p2 = 1 - p1,
  error = 1 - pmax(p1, p2),
  gini = p1 * (1 - p1) + p2 * (1 - p2),
  entropy = - p1 * log(p1) - p2 * log(p2)
)
df

## # A tibble: 101 x 5
##       p1    p2  error   gini  entropy
##    <dbl> <dbl>  <dbl>  <dbl>    <dbl>
##  1  0     1    0      0      NaN     
##  2  0.01  0.99 0.01   0.0198   0.0560
##  3  0.02  0.98 0.02   0.0392   0.0980
##  4  0.03  0.97 0.03   0.0582   0.135 
##  5  0.04  0.96 0.04   0.0768   0.168 
##  6  0.05  0.95 0.05   0.095    0.199 
##  7  0.06  0.94 0.06   0.113    0.227 
##  8  0.07  0.93 0.07   0.130    0.254 
##  9  0.08  0.92 0.0800 0.147    0.279 
## 10  0.09  0.91 0.0900 0.164    0.303 
## # ... with 91 more rows
…
